SchemaQuartus/simulation/qsim/BCD_LMDSH.msim.vcd
$comment
	File created using the following command:
		vcd file BCD_LMDSH.msim.vcd -direction
$end
$date
	Sun Mar 26 15:43:28 2023
$end
$version
	ModelSim Version 2020.1
$end
$timescale
	1ps
$end

$scope module bcd_lmdsh_vhd_vec_tst $end
$var wire 1 ! A $end
$var wire 1 " B $end
$var wire 1 # C $end
$var wire 1 $ D $end
$var wire 1 % ya $end
$var wire 1 & yb $end
$var wire 1 ' yc $end
$var wire 1 ( yd $end
$var wire 1 ) ye $end
$var wire 1 * yf $end
$var wire 1 + yg $end

$scope module i1 $end
$var wire 1 , gnd $end
$var wire 1 - vcc $end
$var wire 1 . unknown $end
$var wire 1 / devoe $end
$var wire 1 0 devclrn $end
$var wire 1 1 devpor $end
$var wire 1 2 ww_devoe $end
$var wire 1 3 ww_devclrn $end
$var wire 1 4 ww_devpor $end
$var wire 1 5 ww_ya $end
$var wire 1 6 ww_D $end
$var wire 1 7 ww_C $end
$var wire 1 8 ww_A $end
$var wire 1 9 ww_B $end
$var wire 1 : ww_yb $end
$var wire 1 ; ww_yc $end
$var wire 1 < ww_yd $end
$var wire 1 = ww_ye $end
$var wire 1 > ww_yf $end
$var wire 1 ? ww_yg $end
$var wire 1 @ \ya~output_o\ $end
$var wire 1 A \yb~output_o\ $end
$var wire 1 B \yc~output_o\ $end
$var wire 1 C \yd~output_o\ $end
$var wire 1 D \ye~output_o\ $end
$var wire 1 E \yf~output_o\ $end
$var wire 1 F \yg~output_o\ $end
$var wire 1 G \C~input_o\ $end
$var wire 1 H \B~input_o\ $end
$var wire 1 I \A~input_o\ $end
$var wire 1 J \D~input_o\ $end
$var wire 1 K \inst77878~combout\ $end
$var wire 1 L \inst47~0_combout\ $end
$var wire 1 M \inst53~0_combout\ $end
$var wire 1 N \inst19~0_combout\ $end
$var wire 1 O \inst27~0_combout\ $end
$var wire 1 P \inst50~0_combout\ $end
$var wire 1 Q \inst49~0_combout\ $end
$var wire 1 R \ALT_INV_B~input_o\ $end
$var wire 1 S \ALT_INV_D~input_o\ $end
$var wire 1 T \ALT_INV_A~input_o\ $end
$var wire 1 U \ALT_INV_C~input_o\ $end
$var wire 1 V \ALT_INV_inst19~0_combout\ $end
$upscope $end
$upscope $end
$enddefinitions $end
#0
$dumpvars
0!
0"
0#
0$
0%
0&
0'
0(
0)
0*
0+
0,
1-
x.
1/
10
11
12
13
14
05
06
07
08
09
0:
0;
0<
0=
0>
0?
0@
0A
0B
0C
0D
0E
0F
xG
xH
xI
xJ
xK
xL
xM
xN
xO
xP
xQ
xR
xS
xT
xU
xV
$end
#596
0G
0J
1S
1U
#626
0I
1T
#634
0H
1R
#2686
xF
x?
x+
#2704
xD
x=
x)
#2757
xE
x>
x*
#2804
x@
x5
x%
#2839
xA
x:
x&
#2885
xC
x<
x(
#3027
xB
x;
x'
#5326
1K
#5339
0Q
#5346
0N
1V
#5360
1O
#5375
0L
#5379
0M
#5392
1P
#8028
1D
1=
1)
#8047
0F
0?
0+
#8098
1@
15
1%
#8121
1E
1>
1*
#8231
1C
1<
1(
#8239
0A
0:
0&
#8432
0B
0;
0'
#30000
1!
18
#30525
1I
0T
#34982
1Q
#35005
1N
0V
#35038
1M
#35052
1L
#37637
1F
1?
1+
#37815
0C
0<
0(
#37855
1A
1:
1&
#38046
1B
1;
1'
#60000
0!
1"
08
19
#60547
1H
0R
#60626
0I
1T
#65051
0Q
#65074
0N
1V
#65108
0M
#65110
0L
#65276
1Q
#65293
0O
#65328
1M
#65469
0P
#65474
1L
#67759
0F
0?
0+
#67931
1F
1?
1+
#67959
1C
1<
1(
#67974
0A
0:
0&
#68020
0D
0=
0)
#68161
0B
0;
0'
#68248
0E
0>
0*
#68277
1A
1:
1&
#68336
1B
1;
1'
#90000
1!
18
#90525
1I
0T
#95017
0L
#95018
0M
#97881
0A
0:
0&
#98071
0B
0;
0'
#120000
0!
0"
1#
08
09
17
#120495
1G
0U
#120626
0I
1T
#120634
0H
1R
#125128
1M
#125145
1L
#125301
1P
#125363
1O
#127948
1A
1:
1&
#128030
1E
1>
1*
#128031
1D
1=
1)
#128136
1B
1;
1'
#150000
1!
18
#150525
1I
0T
#154962
0Q
#157670
0F
0?
0+
#180000
0!
1"
08
19
#180547
1H
0R
#180626
0I
1T
#185071
1Q
#185293
0O
#187726
1F
1?
1+
#188020
0D
0=
0)
#210000
1!
18
#210525
1I
0T
#215013
1O
#217681
1D
1=
1)
#240000
0!
0"
0#
1$
08
09
07
16
#240495
1J
0S
#240596
0G
1U
#240626
0I
1T
#240634
0H
1R
#245082
0O
#245312
0Q
#245326
1N
0V
#245347
0P
#247809
0D
0=
0)
#248020
0F
0?
0+
#248126
0E
0>
0*
#248136
0C
0<
0(
#270000
1!
18
#270525
1I
0T
#274982
1Q
#274985
0N
1V
#275013
1O
#275017
0L
#275044
1P
#277637
1F
1?
1+
#277681
1D
1=
1)
#277773
1E
1>
1*
#277870
1C
1<
1(
#277881
0A
0:
0&
#300000
0!
1"
08
19
#300547
1H
0R
#300626
0I
1T
#305051
0Q
#305082
0O
#305094
1N
0V
#305115
0P
#305145
1L
#305276
1Q
#305429
0N
1V
#305471
1P
#305479
0L
#307759
0F
0?
0+
#307809
0D
0=
0)
#307894
0E
0>
0*
#307904
0C
0<
0(
#307931
1F
1?
1+
#307948
1A
1:
1&
#308200
1E
1>
1*
#308314
1C
1<
1(
#308343
0A
0:
0&
#330000
1!
18
#330525
1I
0T
#334948
0K
#335005
1N
0V
#335052
1L
#337777
0@
05
0%
#337815
0C
0<
0(
#337855
1A
1:
1&
#360000
0!
0"
1#
08
09
17
#360495
1G
0U
#360626
0I
1T
#360634
0H
1R
#365072
1K
#365074
0N
1V
#365110
0L
#365275
0P
#365298
1L
#365322
1N
0V
#365495
0N
1V
#367844
1@
15
1%
#367959
1C
1<
1(
#367974
0A
0:
0&
#368054
0E
0>
0*
#368101
1A
1:
1&
#368132
0C
0<
0(
#368380
1C
1<
1(
#390000
1!
18
#390525
1I
0T
#395013
1O
#395018
0M
#397681
1D
1=
1)
#398071
0B
0;
0'
#420000
0!
1"
08
19
#420547
1H
0R
#420626
0I
1T
#425082
0O
#425128
1M
#425259
0K
#425266
0Q
#425431
1N
0V
#427809
0D
0=
0)
#427974
0F
0?
0+
#428088
0@
05
0%
#428136
1B
1;
1'
#428241
0C
0<
0(
#450000
1!
18
#450525
1I
0T
#454983
1K
#454985
0N
1V
#455013
1O
#455044
1P
#457681
1D
1=
1)
#457755
1@
15
1%
#457773
1E
1>
1*
#457870
1C
1<
1(
#480000
0!
0"
0#
0$
08
09
07
06
#480596
0J
0G
1U
1S
#480626
0I
1T
#480634
0H
1R
#485037
0K
#485082
0O
#485094
1N
0V
#485115
0P
#485326
1K
#485332
1Q
#485339
0Q
#485345
0L
#485346
0N
1V
#485360
1O
#485373
1P
#485379
0M
#487809
0D
0=
0)
#487866
0@
05
0%
#487894
0E
0>
0*
#487904
0C
0<
0(
#487987
1F
1?
1+
#488028
1D
1=
1)
#488047
0F
0?
0+
#488098
1@
15
1%
#488102
1E
1>
1*
#488209
0A
0:
0&
#488231
1C
1<
1(
#488432
0B
0;
0'
